{    
  "ENV":"Ind-Dev",
  "SENTRY":false,
  "IND-DEV": {

      "RABBITMQCLIENT":"3.86.69.81",
      "RABBITMQPORT":5672,
      "RMQUserName":"test",
      "RMQPassword":"test",
      "producerExchange":"test.exchange",
      "producerExchangeType":"topic",
      "consumerExchange":"punctuation.exchange",
      "consumerQueue":"punctuation.queue",
      "consumerExchangeType":"topic"
  },
  "IND-PROD": {
      "USERNAME":"youplus",
      "PASSWORD":"youplus9091",
      "DB":"youplus_production",
      "COLLECTION":"youplus_q_tags",
      "MONGOCLIENT":"ind-prod01.mongos.yupl.us"
  },
  "IND-STG": {
      "USERNAME":"youplus",
      "PASSWORD":"youplus9091",
      "DB":"youplus_staging",
      "COLLECTION":"youplus_q_tags",
      "MONGOCLIENT":"ind.dev.mdb-mongos01.yupl.us"
  }
}
